Masterarbeit
…
# Show Data Set
glucose_monthly_summary

# A tibble: 59 × 7
   ID    Month               Measured_Values Days_Observed Expected_Values
   <chr> <dttm>                        <int>         <int>           <dbl>
 1 102   2024-03-01 00:00:00            5896            21            6048
 2 102   2024-04-01 00:00:00            8244            31            8928
 3 102   2024-05-01 00:00:00            7502            29            8352
 4 102   2024-06-01 00:00:00            4898            19            5472
 5 102   2024-07-01 00:00:00            2084             9            2592
 6 102   2024-08-01 00:00:00            7502            28            8064
 7 102   2024-09-01 00:00:00            8019            30            8640
 8 102   2024-10-01 00:00:00            6023            23            6624
 9 102   2024-11-01 00:00:00            3787            14            4032
10 102   2024-12-01 00:00:00            5947            24            6912
# ℹ 49 more rows
# ℹ 2 more variables: Missing_Values <dbl>, Missing_Percentage <dbl>
…
    Expected_Values = days_in_month(Month) * 24 * 12,  # 12 Messungen pro Stunde bei 5-minütiger Frequenz

    Missing_Values = Expected_Values - Measured_Values,
    Missing_Percentage = ifelse(Expected_Values == 0, NA, round((Missing_Values / Expected_Values) * 100, 2))
  )

Description: Duplicates were found, because Missings were minus –> remove duplicates using cleaned_data_filtered

#check for duplicates first
cleaned_data_filtered %>%
  group_by(ID, Timestamp) %>%
  filter(n() > 1)

# A tibble: 2,940 × 11
# Groups:   ID, Timestamp [1,470]
   Device          Serial.Number DeviceTimestamp Timestamp           Record.Type
   <chr>           <chr>         <chr>           <dttm>                    <int>
 1 FreeStyle Libr… 445B278E-A42… 17-05-2024 15:… 2024-05-17 15:16:00           0
 2 FreeStyle Libr… 445B278E-A42… 17-05-2024 15:… 2024-05-17 15:16:00           0
 3 FreeStyle Libr… 445B278E-A42… 17-05-2024 15:… 2024-05-17 15:21:00           0
 4 FreeStyle Libr… 445B278E-A42… 17-05-2024 15:… 2024-05-17 15:21:00           0
 5 FreeStyle Libr… 445B278E-A42… 17-05-2024 15:… 2024-05-17 15:26:00           0
 6 FreeStyle Libr… 445B278E-A42… 17-05-2024 15:… 2024-05-17 15:26:00           0
 7 FreeStyle Libr… 445B278E-A42… 17-05-2024 15:… 2024-05-17 15:31:00           0
 8 FreeStyle Libr… 445B278E-A42… 17-05-2024 15:… 2024-05-17 15:31:00           0
 9 FreeStyle Libr… 445B278E-A42… 17-05-2024 15:… 2024-05-17 15:36:00           0
10 FreeStyle Libr… 445B278E-A42… 17-05-2024 15:… 2024-05-17 15:36:00           0
# ℹ 2,930 more rows
# ℹ 6 more variables: `Glucose levels (mg/dl)` <int>,
#   `Scan glucose levels (mg/dl)` <int>, ID <chr>, `Glucose (mg/dl)` <int>,
#   Missing <dbl>, Start_Date <dttm>
…
Irregular Timestamps: Less than 4min, more than 6min

Description: Calculate timegaps

time_gaps <- cleaned_data_filtered %>%
  arrange(ID, Timestamp) %>%
  group_by(ID) %>%
  mutate(
    Time_Diff_Minutes = as.numeric(difftime(Timestamp, lag(Timestamp), units = "mins"))
  ) %>%
  ungroup()

time_gaps

# A tibble: 353,190 × 12
   Device          Serial.Number DeviceTimestamp Timestamp           Record.Type
   <chr>           <chr>         <chr>           <dttm>                    <int>
 1 FreeStyle Libr… 445B278E-A42… 11-03-2024 09:… 2024-03-11 09:07:00           0
 2 FreeStyle Libr… 445B278E-A42… 11-03-2024 09:… 2024-03-11 09:12:00           0
 3 FreeStyle Libr… 445B278E-A42… 11-03-2024 09:… 2024-03-11 09:17:00           0
 4 FreeStyle Libr… 445B278E-A42… 11-03-2024 09:… 2024-03-11 09:22:00           0
 5 FreeStyle Libr… 445B278E-A42… 11-03-2024 09:… 2024-03-11 09:27:00           0
 6 FreeStyle Libr… 445B278E-A42… 11-03-2024 09:… 2024-03-11 09:32:00           0
 7 FreeStyle Libr… 445B278E-A42… 11-03-2024 09:… 2024-03-11 09:37:00           0
 8 FreeStyle Libr… 445B278E-A42… 11-03-2024 09:… 2024-03-11 09:42:00           0
 9 FreeStyle Libr… 445B278E-A42… 11-03-2024 09:… 2024-03-11 09:47:00           0
10 FreeStyle Libr… 445B278E-A42… 11-03-2024 09:… 2024-03-11 09:52:00           0
# ℹ 353,180 more rows
# ℹ 7 more variables: `Glucose levels (mg/dl)` <int>,
#   `Scan glucose levels (mg/dl)` <int>, ID <chr>, `Glucose (mg/dl)` <int>,
#   Missing <dbl>, Start_Date <dttm>, Time_Diff_Minutes <dbl>

Gaps: more than 6min

gaps_over_6min <- time_gaps %>%
  filter(!is.na(Time_Diff_Minutes) & Time_Diff_Minutes > 6)

gaps_over_6min

# A tibble: 290 × 12
   Device          Serial.Number DeviceTimestamp Timestamp           Record.Type
   <chr>           <chr>         <chr>           <dttm>                    <int>
 1 FreeStyle Libr… 445B278E-A42… 14-03-2024 19:… 2024-03-14 19:22:00           0
 2 FreeStyle Libr… 445B278E-A42… 25-03-2024 10:… 2024-03-25 10:26:00           0
 3 FreeStyle Libr… 445B278E-A42… 29-03-2024 19:… 2024-03-29 19:41:00           0
 4 FreeStyle Libr… 445B278E-A42… 01-04-2024 15:… 2024-04-01 15:31:00           0
 5 FreeStyle Libr… 445B278E-A42… 04-04-2024 12:… 2024-04-04 12:21:00           0
 6 FreeStyle Libr… 445B278E-A42… 09-04-2024 10:… 2024-04-09 10:40:00           0
 7 FreeStyle Libr… 445B278E-A42… 11-04-2024 19:… 2024-04-11 19:35:00           0
 8 FreeStyle Libr… 445B278E-A42… 11-04-2024 20:… 2024-04-11 20:00:00           0
 9 FreeStyle Libr… 445B278E-A42… 11-04-2024 20:… 2024-04-11 20:20:00           0
10 FreeStyle Libr… 445B278E-A42… 11-04-2024 22:… 2024-04-11 22:20:00           0
# ℹ 280 more rows
# ℹ 7 more variables: `Glucose levels (mg/dl)` <int>,
#   `Scan glucose levels (mg/dl)` <int>, ID <chr>, `Glucose (mg/dl)` <int>,
#   Missing <dbl>, Start_Date <dttm>, Time_Diff_Minutes <dbl>
…
